YCSB Client 0.1
[info 2014/08/03 20:11:28] Command line: -db com.yahoo.ycsb.db.GemFireXDClient -p db.driver=com.pivotal.gemfirexd.jdbc.EmbeddedDriver -p db.url=jdbc:gemfirexd:;locators=hdw8.gphd.local[10101];host-data=false;conserve-sockets=false -p query.hdfs=false -threads 32 -P /home/gpadmin/shangz/ycsb/ycsb-0.1.4/workloads/gfxd_hdfs_workload_qa -p operationcount=100000 -s -t
Peer client connecting to jdbc:gemfirexd:;locators=hdw8.gphd.local[10101];host-data=false;conserve-sockets=false

Peer client connecting to jdbc:gemfirexd:

Peer client connecting to jdbc:gemfirexd:

Peer client connecting to jdbc:gemfirexd:

Peer client connecting to jdbc:gemfirexd:

Peer client connecting to jdbc:gemfirexd:

Peer client connecting to jdbc:gemfirexd:

Peer client connecting to jdbc:gemfirexd:

Peer client connecting to jdbc:gemfirexd:

Peer client connecting to jdbc:gemfirexd:

Peer client connecting to jdbc:gemfirexd:

Peer client connecting to jdbc:gemfirexd:

Peer client connecting to jdbc:gemfirexd:

Peer client connecting to jdbc:gemfirexd:

Peer client connecting to jdbc:gemfirexd:

Peer client connecting to jdbc:gemfirexd:

Peer client connecting to jdbc:gemfirexd:

Peer client connecting to jdbc:gemfirexd:

Peer client connecting to jdbc:gemfirexd:

Peer client connecting to jdbc:gemfirexd:

Peer client connecting to jdbc:gemfirexd:

Peer client connecting to jdbc:gemfirexd:

Peer client connecting to jdbc:gemfirexd:

Peer client connecting to jdbc:gemfirexd:

Peer client connecting to jdbc:gemfirexd:

Peer client connecting to jdbc:gemfirexd:

Peer client connecting to jdbc:gemfirexd:

Peer client connecting to jdbc:gemfirexd:

Peer client connecting to jdbc:gemfirexd:

Peer client connecting to jdbc:gemfirexd:

Peer client connecting to jdbc:gemfirexd:

Peer client connecting to jdbc:gemfirexd:

Completed 0 scans with 0 results

Completed 0 scans with 0 results

Completed 0 scans with 0 results

Completed 0 scans with 0 results

Completed 0 scans with 0 results

Completed 0 scans with 0 results

Completed 0 scans with 0 results

Completed 0 scans with 0 results

Completed 0 scans with 0 results

Completed 0 scans with 0 results

Completed 0 scans with 0 results

Completed 0 scans with 0 results

Completed 0 scans with 0 results

Completed 0 scans with 0 results

Completed 0 scans with 0 results

Completed 0 scans with 0 results

Completed 0 scans with 0 results

Completed 0 scans with 0 results

Completed 0 scans with 0 results

Completed 0 scans with 0 results

Completed 0 scans with 0 results

Completed 0 scans with 0 results

Completed 0 scans with 0 results

Completed 0 scans with 0 results

Completed 0 scans with 0 results

Completed 0 scans with 0 results

Completed 0 scans with 0 results

Completed 0 scans with 0 results

Completed 0 scans with 0 results

Completed 0 scans with 0 results

Completed 0 scans with 0 results

Completed 0 scans with 0 results

[info 2014/08/03 20:48:50] TEST ENDED, CLEANING UP
[OVERALL], RunTime(ms), 2242547.0
[OVERALL], Throughput(ops/sec), 44.59215347549014
[CLEANUP], Operations, 32
[CLEANUP], AverageLatency(us), 471.71875
[CLEANUP], MinLatency(us), 124
[CLEANUP], MaxLatency(us), 2728
[CLEANUP], 95thPercentileLatency(ms), 2
[CLEANUP], 99thPercentileLatency(ms), 2
[CLEANUP], 0, 30
[CLEANUP], 1, 0
[CLEANUP], 2, 2
[CLEANUP], 3, 0
[CLEANUP], 4, 0
[CLEANUP], 5, 0
[CLEANUP], 6, 0
[CLEANUP], 7, 0
[CLEANUP], 8, 0
[CLEANUP], 9, 0
[CLEANUP], 10, 0
[CLEANUP], 11, 0
[CLEANUP], 12, 0
[CLEANUP], 13, 0
[CLEANUP], 14, 0
[CLEANUP], 15, 0
[CLEANUP], 16, 0
[CLEANUP], 17, 0
[CLEANUP], 18, 0
[CLEANUP], 19, 0
[CLEANUP], 20, 0
[CLEANUP], 21, 0
[CLEANUP], 22, 0
[CLEANUP], 23, 0
[CLEANUP], 24, 0
[CLEANUP], 25, 0
[CLEANUP], 26, 0
[CLEANUP], 27, 0
[CLEANUP], 28, 0
[CLEANUP], 29, 0
[CLEANUP], 30, 0
[CLEANUP], 31, 0
[CLEANUP], 32, 0
[CLEANUP], 33, 0
[CLEANUP], 34, 0
[CLEANUP], 35, 0
[CLEANUP], 36, 0
[CLEANUP], 37, 0
[CLEANUP], 38, 0
[CLEANUP], 39, 0
[CLEANUP], 40, 0
[CLEANUP], 41, 0
[CLEANUP], 42, 0
[CLEANUP], 43, 0
[CLEANUP], 44, 0
[CLEANUP], 45, 0
[CLEANUP], 46, 0
[CLEANUP], 47, 0
[CLEANUP], 48, 0
[CLEANUP], 49, 0
[CLEANUP], 50, 0
[CLEANUP], 51, 0
[CLEANUP], 52, 0
[CLEANUP], 53, 0
[CLEANUP], 54, 0
[CLEANUP], 55, 0
[CLEANUP], 56, 0
[CLEANUP], 57, 0
[CLEANUP], 58, 0
[CLEANUP], 59, 0
[CLEANUP], 60, 0
[CLEANUP], 61, 0
[CLEANUP], 62, 0
[CLEANUP], 63, 0
[CLEANUP], 64, 0
[CLEANUP], 65, 0
[CLEANUP], 66, 0
[CLEANUP], 67, 0
[CLEANUP], 68, 0
[CLEANUP], 69, 0
[CLEANUP], 70, 0
[CLEANUP], 71, 0
[CLEANUP], 72, 0
[CLEANUP], 73, 0
[CLEANUP], 74, 0
[CLEANUP], 75, 0
[CLEANUP], 76, 0
[CLEANUP], 77, 0
[CLEANUP], 78, 0
[CLEANUP], 79, 0
[CLEANUP], 80, 0
[CLEANUP], 81, 0
[CLEANUP], 82, 0
[CLEANUP], 83, 0
[CLEANUP], 84, 0
[CLEANUP], 85, 0
[CLEANUP], 86, 0
[CLEANUP], 87, 0
[CLEANUP], 88, 0
[CLEANUP], 89, 0
[CLEANUP], 90, 0
[CLEANUP], 91, 0
[CLEANUP], 92, 0
[CLEANUP], 93, 0
[CLEANUP], 94, 0
[CLEANUP], 95, 0
[CLEANUP], 96, 0
[CLEANUP], 97, 0
[CLEANUP], 98, 0
[CLEANUP], 99, 0
[CLEANUP], 100, 0
[CLEANUP], 101, 0
[CLEANUP], 102, 0
[CLEANUP], 103, 0
[CLEANUP], 104, 0
[CLEANUP], 105, 0
[CLEANUP], 106, 0
[CLEANUP], 107, 0
[CLEANUP], 108, 0
[CLEANUP], 109, 0
[CLEANUP], 110, 0
[CLEANUP], 111, 0
[CLEANUP], 112, 0
[CLEANUP], 113, 0
[CLEANUP], 114, 0
[CLEANUP], 115, 0
[CLEANUP], 116, 0
[CLEANUP], 117, 0
[CLEANUP], 118, 0
[CLEANUP], 119, 0
[CLEANUP], 120, 0
[CLEANUP], 121, 0
[CLEANUP], 122, 0
[CLEANUP], 123, 0
[CLEANUP], 124, 0
[CLEANUP], 125, 0
[CLEANUP], 126, 0
[CLEANUP], 127, 0
[CLEANUP], 128, 0
[CLEANUP], 129, 0
[CLEANUP], 130, 0
[CLEANUP], 131, 0
[CLEANUP], 132, 0
[CLEANUP], 133, 0
[CLEANUP], 134, 0
[CLEANUP], 135, 0
[CLEANUP], 136, 0
[CLEANUP], 137, 0
[CLEANUP], 138, 0
[CLEANUP], 139, 0
[CLEANUP], 140, 0
[CLEANUP], 141, 0
[CLEANUP], 142, 0
[CLEANUP], 143, 0
[CLEANUP], 144, 0
[CLEANUP], 145, 0
[CLEANUP], 146, 0
[CLEANUP], 147, 0
[CLEANUP], 148, 0
[CLEANUP], 149, 0
[CLEANUP], 150, 0
[CLEANUP], 151, 0
[CLEANUP], 152, 0
[CLEANUP], 153, 0
[CLEANUP], 154, 0
[CLEANUP], 155, 0
[CLEANUP], 156, 0
[CLEANUP], 157, 0
[CLEANUP], 158, 0
[CLEANUP], 159, 0
[CLEANUP], 160, 0
[CLEANUP], 161, 0
[CLEANUP], 162, 0
[CLEANUP], 163, 0
[CLEANUP], 164, 0
[CLEANUP], 165, 0
[CLEANUP], 166, 0
[CLEANUP], 167, 0
[CLEANUP], 168, 0
[CLEANUP], 169, 0
[CLEANUP], 170, 0
[CLEANUP], 171, 0
[CLEANUP], 172, 0
[CLEANUP], 173, 0
[CLEANUP], 174, 0
[CLEANUP], 175, 0
[CLEANUP], 176, 0
[CLEANUP], 177, 0
[CLEANUP], 178, 0
[CLEANUP], 179, 0
[CLEANUP], 180, 0
[CLEANUP], 181, 0
[CLEANUP], 182, 0
[CLEANUP], 183, 0
[CLEANUP], 184, 0
[CLEANUP], 185, 0
[CLEANUP], 186, 0
[CLEANUP], 187, 0
[CLEANUP], 188, 0
[CLEANUP], 189, 0
[CLEANUP], 190, 0
[CLEANUP], 191, 0
[CLEANUP], 192, 0
[CLEANUP], 193, 0
[CLEANUP], 194, 0
[CLEANUP], 195, 0
[CLEANUP], 196, 0
[CLEANUP], 197, 0
[CLEANUP], 198, 0
[CLEANUP], 199, 0
[CLEANUP], 200, 0
[CLEANUP], 201, 0
[CLEANUP], 202, 0
[CLEANUP], 203, 0
[CLEANUP], 204, 0
[CLEANUP], 205, 0
[CLEANUP], 206, 0
[CLEANUP], 207, 0
[CLEANUP], 208, 0
[CLEANUP], 209, 0
[CLEANUP], 210, 0
[CLEANUP], 211, 0
[CLEANUP], 212, 0
[CLEANUP], 213, 0
[CLEANUP], 214, 0
[CLEANUP], 215, 0
[CLEANUP], 216, 0
[CLEANUP], 217, 0
[CLEANUP], 218, 0
[CLEANUP], 219, 0
[CLEANUP], 220, 0
[CLEANUP], 221, 0
[CLEANUP], 222, 0
[CLEANUP], 223, 0
[CLEANUP], 224, 0
[CLEANUP], 225, 0
[CLEANUP], 226, 0
[CLEANUP], 227, 0
[CLEANUP], 228, 0
[CLEANUP], 229, 0
[CLEANUP], 230, 0
[CLEANUP], 231, 0
[CLEANUP], 232, 0
[CLEANUP], 233, 0
[CLEANUP], 234, 0
[CLEANUP], 235, 0
[CLEANUP], 236, 0
[CLEANUP], 237, 0
[CLEANUP], 238, 0
[CLEANUP], 239, 0
[CLEANUP], 240, 0
[CLEANUP], 241, 0
[CLEANUP], 242, 0
[CLEANUP], 243, 0
[CLEANUP], 244, 0
[CLEANUP], 245, 0
[CLEANUP], 246, 0
[CLEANUP], 247, 0
[CLEANUP], 248, 0
[CLEANUP], 249, 0
[CLEANUP], 250, 0
[CLEANUP], 251, 0
[CLEANUP], 252, 0
[CLEANUP], 253, 0
[CLEANUP], 254, 0
[CLEANUP], 255, 0
[CLEANUP], 256, 0
[CLEANUP], 257, 0
[CLEANUP], 258, 0
[CLEANUP], 259, 0
[CLEANUP], 260, 0
[CLEANUP], 261, 0
[CLEANUP], 262, 0
[CLEANUP], 263, 0
[CLEANUP], 264, 0
[CLEANUP], 265, 0
[CLEANUP], 266, 0
[CLEANUP], 267, 0
[CLEANUP], 268, 0
[CLEANUP], 269, 0
[CLEANUP], 270, 0
[CLEANUP], 271, 0
[CLEANUP], 272, 0
[CLEANUP], 273, 0
[CLEANUP], 274, 0
[CLEANUP], 275, 0
[CLEANUP], 276, 0
[CLEANUP], 277, 0
[CLEANUP], 278, 0
[CLEANUP], 279, 0
[CLEANUP], 280, 0
[CLEANUP], 281, 0
[CLEANUP], 282, 0
[CLEANUP], 283, 0
[CLEANUP], 284, 0
[CLEANUP], 285, 0
[CLEANUP], 286, 0
[CLEANUP], 287, 0
[CLEANUP], 288, 0
[CLEANUP], 289, 0
[CLEANUP], 290, 0
[CLEANUP], 291, 0
[CLEANUP], 292, 0
[CLEANUP], 293, 0
[CLEANUP], 294, 0
[CLEANUP], 295, 0
[CLEANUP], 296, 0
[CLEANUP], 297, 0
[CLEANUP], 298, 0
[CLEANUP], 299, 0
[CLEANUP], 300, 0
[CLEANUP], 301, 0
[CLEANUP], 302, 0
[CLEANUP], 303, 0
[CLEANUP], 304, 0
[CLEANUP], 305, 0
[CLEANUP], 306, 0
[CLEANUP], 307, 0
[CLEANUP], 308, 0
[CLEANUP], 309, 0
[CLEANUP], 310, 0
[CLEANUP], 311, 0
[CLEANUP], 312, 0
[CLEANUP], 313, 0
[CLEANUP], 314, 0
[CLEANUP], 315, 0
[CLEANUP], 316, 0
[CLEANUP], 317, 0
[CLEANUP], 318, 0
[CLEANUP], 319, 0
[CLEANUP], 320, 0
[CLEANUP], 321, 0
[CLEANUP], 322, 0
[CLEANUP], 323, 0
[CLEANUP], 324, 0
[CLEANUP], 325, 0
[CLEANUP], 326, 0
[CLEANUP], 327, 0
[CLEANUP], 328, 0
[CLEANUP], 329, 0
[CLEANUP], 330, 0
[CLEANUP], 331, 0
[CLEANUP], 332, 0
[CLEANUP], 333, 0
[CLEANUP], 334, 0
[CLEANUP], 335, 0
[CLEANUP], 336, 0
[CLEANUP], 337, 0
[CLEANUP], 338, 0
[CLEANUP], 339, 0
[CLEANUP], 340, 0
[CLEANUP], 341, 0
[CLEANUP], 342, 0
[CLEANUP], 343, 0
[CLEANUP], 344, 0
[CLEANUP], 345, 0
[CLEANUP], 346, 0
[CLEANUP], 347, 0
[CLEANUP], 348, 0
[CLEANUP], 349, 0
[CLEANUP], 350, 0
[CLEANUP], 351, 0
[CLEANUP], 352, 0
[CLEANUP], 353, 0
[CLEANUP], 354, 0
[CLEANUP], 355, 0
[CLEANUP], 356, 0
[CLEANUP], 357, 0
[CLEANUP], 358, 0
[CLEANUP], 359, 0
[CLEANUP], 360, 0
[CLEANUP], 361, 0
[CLEANUP], 362, 0
[CLEANUP], 363, 0
[CLEANUP], 364, 0
[CLEANUP], 365, 0
[CLEANUP], 366, 0
[CLEANUP], 367, 0
[CLEANUP], 368, 0
[CLEANUP], 369, 0
[CLEANUP], 370, 0
[CLEANUP], 371, 0
[CLEANUP], 372, 0
[CLEANUP], 373, 0
[CLEANUP], 374, 0
[CLEANUP], 375, 0
[CLEANUP], 376, 0
[CLEANUP], 377, 0
[CLEANUP], 378, 0
[CLEANUP], 379, 0
[CLEANUP], 380, 0
[CLEANUP], 381, 0
[CLEANUP], 382, 0
[CLEANUP], 383, 0
[CLEANUP], 384, 0
[CLEANUP], 385, 0
[CLEANUP], 386, 0
[CLEANUP], 387, 0
[CLEANUP], 388, 0
[CLEANUP], 389, 0
[CLEANUP], 390, 0
[CLEANUP], 391, 0
[CLEANUP], 392, 0
[CLEANUP], 393, 0
[CLEANUP], 394, 0
[CLEANUP], 395, 0
[CLEANUP], 396, 0
[CLEANUP], 397, 0
[CLEANUP], 398, 0
[CLEANUP], 399, 0
[CLEANUP], 400, 0
[CLEANUP], 401, 0
[CLEANUP], 402, 0
[CLEANUP], 403, 0
[CLEANUP], 404, 0
[CLEANUP], 405, 0
[CLEANUP], 406, 0
[CLEANUP], 407, 0
[CLEANUP], 408, 0
[CLEANUP], 409, 0
[CLEANUP], 410, 0
[CLEANUP], 411, 0
[CLEANUP], 412, 0
[CLEANUP], 413, 0
[CLEANUP], 414, 0
[CLEANUP], 415, 0
[CLEANUP], 416, 0
[CLEANUP], 417, 0
[CLEANUP], 418, 0
[CLEANUP], 419, 0
[CLEANUP], 420, 0
[CLEANUP], 421, 0
[CLEANUP], 422, 0
[CLEANUP], 423, 0
[CLEANUP], 424, 0
[CLEANUP], 425, 0
[CLEANUP], 426, 0
[CLEANUP], 427, 0
[CLEANUP], 428, 0
[CLEANUP], 429, 0
[CLEANUP], 430, 0
[CLEANUP], 431, 0
[CLEANUP], 432, 0
[CLEANUP], 433, 0
[CLEANUP], 434, 0
[CLEANUP], 435, 0
[CLEANUP], 436, 0
[CLEANUP], 437, 0
[CLEANUP], 438, 0
[CLEANUP], 439, 0
[CLEANUP], 440, 0
[CLEANUP], 441, 0
[CLEANUP], 442, 0
[CLEANUP], 443, 0
[CLEANUP], 444, 0
[CLEANUP], 445, 0
[CLEANUP], 446, 0
[CLEANUP], 447, 0
[CLEANUP], 448, 0
[CLEANUP], 449, 0
[CLEANUP], 450, 0
[CLEANUP], 451, 0
[CLEANUP], 452, 0
[CLEANUP], 453, 0
[CLEANUP], 454, 0
[CLEANUP], 455, 0
[CLEANUP], 456, 0
[CLEANUP], 457, 0
[CLEANUP], 458, 0
[CLEANUP], 459, 0
[CLEANUP], 460, 0
[CLEANUP], 461, 0
[CLEANUP], 462, 0
[CLEANUP], 463, 0
[CLEANUP], 464, 0
[CLEANUP], 465, 0
[CLEANUP], 466, 0
[CLEANUP], 467, 0
[CLEANUP], 468, 0
[CLEANUP], 469, 0
[CLEANUP], 470, 0
[CLEANUP], 471, 0
[CLEANUP], 472, 0
[CLEANUP], 473, 0
[CLEANUP], 474, 0
[CLEANUP], 475, 0
[CLEANUP], 476, 0
[CLEANUP], 477, 0
[CLEANUP], 478, 0
[CLEANUP], 479, 0
[CLEANUP], 480, 0
[CLEANUP], 481, 0
[CLEANUP], 482, 0
[CLEANUP], 483, 0
[CLEANUP], 484, 0
[CLEANUP], 485, 0
[CLEANUP], 486, 0
[CLEANUP], 487, 0
[CLEANUP], 488, 0
[CLEANUP], 489, 0
[CLEANUP], 490, 0
[CLEANUP], 491, 0
[CLEANUP], 492, 0
[CLEANUP], 493, 0
[CLEANUP], 494, 0
[CLEANUP], 495, 0
[CLEANUP], 496, 0
[CLEANUP], 497, 0
[CLEANUP], 498, 0
[CLEANUP], 499, 0
[CLEANUP], 500, 0
[CLEANUP], 501, 0
[CLEANUP], 502, 0
[CLEANUP], 503, 0
[CLEANUP], 504, 0
[CLEANUP], 505, 0
[CLEANUP], 506, 0
[CLEANUP], 507, 0
[CLEANUP], 508, 0
[CLEANUP], 509, 0
[CLEANUP], 510, 0
[CLEANUP], 511, 0
[CLEANUP], 512, 0
[CLEANUP], 513, 0
[CLEANUP], 514, 0
[CLEANUP], 515, 0
[CLEANUP], 516, 0
[CLEANUP], 517, 0
[CLEANUP], 518, 0
[CLEANUP], 519, 0
[CLEANUP], 520, 0
[CLEANUP], 521, 0
[CLEANUP], 522, 0
[CLEANUP], 523, 0
[CLEANUP], 524, 0
[CLEANUP], 525, 0
[CLEANUP], 526, 0
[CLEANUP], 527, 0
[CLEANUP], 528, 0
[CLEANUP], 529, 0
[CLEANUP], 530, 0
[CLEANUP], 531, 0
[CLEANUP], 532, 0
[CLEANUP], 533, 0
[CLEANUP], 534, 0
[CLEANUP], 535, 0
[CLEANUP], 536, 0
[CLEANUP], 537, 0
[CLEANUP], 538, 0
[CLEANUP], 539, 0
[CLEANUP], 540, 0
[CLEANUP], 541, 0
[CLEANUP], 542, 0
[CLEANUP], 543, 0
[CLEANUP], 544, 0
[CLEANUP], 545, 0
[CLEANUP], 546, 0
[CLEANUP], 547, 0
[CLEANUP], 548, 0
[CLEANUP], 549, 0
[CLEANUP], 550, 0
[CLEANUP], 551, 0
[CLEANUP], 552, 0
[CLEANUP], 553, 0
[CLEANUP], 554, 0
[CLEANUP], 555, 0
[CLEANUP], 556, 0
[CLEANUP], 557, 0
[CLEANUP], 558, 0
[CLEANUP], 559, 0
[CLEANUP], 560, 0
[CLEANUP], 561, 0
[CLEANUP], 562, 0
[CLEANUP], 563, 0
[CLEANUP], 564, 0
[CLEANUP], 565, 0
[CLEANUP], 566, 0
[CLEANUP], 567, 0
[CLEANUP], 568, 0
[CLEANUP], 569, 0
[CLEANUP], 570, 0
[CLEANUP], 571, 0
[CLEANUP], 572, 0
[CLEANUP], 573, 0
[CLEANUP], 574, 0
[CLEANUP], 575, 0
[CLEANUP], 576, 0
[CLEANUP], 577, 0
[CLEANUP], 578, 0
[CLEANUP], 579, 0
[CLEANUP], 580, 0
[CLEANUP], 581, 0
[CLEANUP], 582, 0
[CLEANUP], 583, 0
[CLEANUP], 584, 0
[CLEANUP], 585, 0
[CLEANUP], 586, 0
[CLEANUP], 587, 0
[CLEANUP], 588, 0
[CLEANUP], 589, 0
[CLEANUP], 590, 0
[CLEANUP], 591, 0
[CLEANUP], 592, 0
[CLEANUP], 593, 0
[CLEANUP], 594, 0
[CLEANUP], 595, 0
[CLEANUP], 596, 0
[CLEANUP], 597, 0
[CLEANUP], 598, 0
[CLEANUP], 599, 0
[CLEANUP], 600, 0
[CLEANUP], 601, 0
[CLEANUP], 602, 0
[CLEANUP], 603, 0
[CLEANUP], 604, 0
[CLEANUP], 605, 0
[CLEANUP], 606, 0
[CLEANUP], 607, 0
[CLEANUP], 608, 0
[CLEANUP], 609, 0
[CLEANUP], 610, 0
[CLEANUP], 611, 0
[CLEANUP], 612, 0
[CLEANUP], 613, 0
[CLEANUP], 614, 0
[CLEANUP], 615, 0
[CLEANUP], 616, 0
[CLEANUP], 617, 0
[CLEANUP], 618, 0
[CLEANUP], 619, 0
[CLEANUP], 620, 0
[CLEANUP], 621, 0
[CLEANUP], 622, 0
[CLEANUP], 623, 0
[CLEANUP], 624, 0
[CLEANUP], 625, 0
[CLEANUP], 626, 0
[CLEANUP], 627, 0
[CLEANUP], 628, 0
[CLEANUP], 629, 0
[CLEANUP], 630, 0
[CLEANUP], 631, 0
[CLEANUP], 632, 0
[CLEANUP], 633, 0
[CLEANUP], 634, 0
[CLEANUP], 635, 0
[CLEANUP], 636, 0
[CLEANUP], 637, 0
[CLEANUP], 638, 0
[CLEANUP], 639, 0
[CLEANUP], 640, 0
[CLEANUP], 641, 0
[CLEANUP], 642, 0
[CLEANUP], 643, 0
[CLEANUP], 644, 0
[CLEANUP], 645, 0
[CLEANUP], 646, 0
[CLEANUP], 647, 0
[CLEANUP], 648, 0
[CLEANUP], 649, 0
[CLEANUP], 650, 0
[CLEANUP], 651, 0
[CLEANUP], 652, 0
[CLEANUP], 653, 0
[CLEANUP], 654, 0
[CLEANUP], 655, 0
[CLEANUP], 656, 0
[CLEANUP], 657, 0
[CLEANUP], 658, 0
[CLEANUP], 659, 0
[CLEANUP], 660, 0
[CLEANUP], 661, 0
[CLEANUP], 662, 0
[CLEANUP], 663, 0
[CLEANUP], 664, 0
[CLEANUP], 665, 0
[CLEANUP], 666, 0
[CLEANUP], 667, 0
[CLEANUP], 668, 0
[CLEANUP], 669, 0
[CLEANUP], 670, 0
[CLEANUP], 671, 0
[CLEANUP], 672, 0
[CLEANUP], 673, 0
[CLEANUP], 674, 0
[CLEANUP], 675, 0
[CLEANUP], 676, 0
[CLEANUP], 677, 0
[CLEANUP], 678, 0
[CLEANUP], 679, 0
[CLEANUP], 680, 0
[CLEANUP], 681, 0
[CLEANUP], 682, 0
[CLEANUP], 683, 0
[CLEANUP], 684, 0
[CLEANUP], 685, 0
[CLEANUP], 686, 0
[CLEANUP], 687, 0
[CLEANUP], 688, 0
[CLEANUP], 689, 0
[CLEANUP], 690, 0
[CLEANUP], 691, 0
[CLEANUP], 692, 0
[CLEANUP], 693, 0
[CLEANUP], 694, 0
[CLEANUP], 695, 0
[CLEANUP], 696, 0
[CLEANUP], 697, 0
[CLEANUP], 698, 0
[CLEANUP], 699, 0
[CLEANUP], 700, 0
[CLEANUP], 701, 0
[CLEANUP], 702, 0
[CLEANUP], 703, 0
[CLEANUP], 704, 0
[CLEANUP], 705, 0
[CLEANUP], 706, 0
[CLEANUP], 707, 0
[CLEANUP], 708, 0
[CLEANUP], 709, 0
[CLEANUP], 710, 0
[CLEANUP], 711, 0
[CLEANUP], 712, 0
[CLEANUP], 713, 0
[CLEANUP], 714, 0
[CLEANUP], 715, 0
[CLEANUP], 716, 0
[CLEANUP], 717, 0
[CLEANUP], 718, 0
[CLEANUP], 719, 0
[CLEANUP], 720, 0
[CLEANUP], 721, 0
[CLEANUP], 722, 0
[CLEANUP], 723, 0
[CLEANUP], 724, 0
[CLEANUP], 725, 0
[CLEANUP], 726, 0
[CLEANUP], 727, 0
[CLEANUP], 728, 0
[CLEANUP], 729, 0
[CLEANUP], 730, 0
[CLEANUP], 731, 0
[CLEANUP], 732, 0
[CLEANUP], 733, 0
[CLEANUP], 734, 0
[CLEANUP], 735, 0
[CLEANUP], 736, 0
[CLEANUP], 737, 0
[CLEANUP], 738, 0
[CLEANUP], 739, 0
[CLEANUP], 740, 0
[CLEANUP], 741, 0
[CLEANUP], 742, 0
[CLEANUP], 743, 0
[CLEANUP], 744, 0
[CLEANUP], 745, 0
[CLEANUP], 746, 0
[CLEANUP], 747, 0
[CLEANUP], 748, 0
[CLEANUP], 749, 0
[CLEANUP], 750, 0
[CLEANUP], 751, 0
[CLEANUP], 752, 0
[CLEANUP], 753, 0
[CLEANUP], 754, 0
[CLEANUP], 755, 0
[CLEANUP], 756, 0
[CLEANUP], 757, 0
[CLEANUP], 758, 0
[CLEANUP], 759, 0
[CLEANUP], 760, 0
[CLEANUP], 761, 0
[CLEANUP], 762, 0
[CLEANUP], 763, 0
[CLEANUP], 764, 0
[CLEANUP], 765, 0
[CLEANUP], 766, 0
[CLEANUP], 767, 0
[CLEANUP], 768, 0
[CLEANUP], 769, 0
[CLEANUP], 770, 0
[CLEANUP], 771, 0
[CLEANUP], 772, 0
[CLEANUP], 773, 0
[CLEANUP], 774, 0
[CLEANUP], 775, 0
[CLEANUP], 776, 0
[CLEANUP], 777, 0
[CLEANUP], 778, 0
[CLEANUP], 779, 0
[CLEANUP], 780, 0
[CLEANUP], 781, 0
[CLEANUP], 782, 0
[CLEANUP], 783, 0
[CLEANUP], 784, 0
[CLEANUP], 785, 0
[CLEANUP], 786, 0
[CLEANUP], 787, 0
[CLEANUP], 788, 0
[CLEANUP], 789, 0
[CLEANUP], 790, 0
[CLEANUP], 791, 0
[CLEANUP], 792, 0
[CLEANUP], 793, 0
[CLEANUP], 794, 0
[CLEANUP], 795, 0
[CLEANUP], 796, 0
[CLEANUP], 797, 0
[CLEANUP], 798, 0
[CLEANUP], 799, 0
[CLEANUP], 800, 0
[CLEANUP], 801, 0
[CLEANUP], 802, 0
[CLEANUP], 803, 0
[CLEANUP], 804, 0
[CLEANUP], 805, 0
[CLEANUP], 806, 0
[CLEANUP], 807, 0
[CLEANUP], 808, 0
[CLEANUP], 809, 0
[CLEANUP], 810, 0
[CLEANUP], 811, 0
[CLEANUP], 812, 0
[CLEANUP], 813, 0
[CLEANUP], 814, 0
[CLEANUP], 815, 0
[CLEANUP], 816, 0
[CLEANUP], 817, 0
[CLEANUP], 818, 0
[CLEANUP], 819, 0
[CLEANUP], 820, 0
[CLEANUP], 821, 0
[CLEANUP], 822, 0
[CLEANUP], 823, 0
[CLEANUP], 824, 0
[CLEANUP], 825, 0
[CLEANUP], 826, 0
[CLEANUP], 827, 0
[CLEANUP], 828, 0
[CLEANUP], 829, 0
[CLEANUP], 830, 0
[CLEANUP], 831, 0
[CLEANUP], 832, 0
[CLEANUP], 833, 0
[CLEANUP], 834, 0
[CLEANUP], 835, 0
[CLEANUP], 836, 0
[CLEANUP], 837, 0
[CLEANUP], 838, 0
[CLEANUP], 839, 0
[CLEANUP], 840, 0
[CLEANUP], 841, 0
[CLEANUP], 842, 0
[CLEANUP], 843, 0
[CLEANUP], 844, 0
[CLEANUP], 845, 0
[CLEANUP], 846, 0
[CLEANUP], 847, 0
[CLEANUP], 848, 0
[CLEANUP], 849, 0
[CLEANUP], 850, 0
[CLEANUP], 851, 0
[CLEANUP], 852, 0
[CLEANUP], 853, 0
[CLEANUP], 854, 0
[CLEANUP], 855, 0
[CLEANUP], 856, 0
[CLEANUP], 857, 0
[CLEANUP], 858, 0
[CLEANUP], 859, 0
[CLEANUP], 860, 0
[CLEANUP], 861, 0
[CLEANUP], 862, 0
[CLEANUP], 863, 0
[CLEANUP], 864, 0
[CLEANUP], 865, 0
[CLEANUP], 866, 0
[CLEANUP], 867, 0
[CLEANUP], 868, 0
[CLEANUP], 869, 0
[CLEANUP], 870, 0
[CLEANUP], 871, 0
[CLEANUP], 872, 0
[CLEANUP], 873, 0
[CLEANUP], 874, 0
[CLEANUP], 875, 0
[CLEANUP], 876, 0
[CLEANUP], 877, 0
[CLEANUP], 878, 0
[CLEANUP], 879, 0
[CLEANUP], 880, 0
[CLEANUP], 881, 0
[CLEANUP], 882, 0
[CLEANUP], 883, 0
[CLEANUP], 884, 0
[CLEANUP], 885, 0
[CLEANUP], 886, 0
[CLEANUP], 887, 0
[CLEANUP], 888, 0
[CLEANUP], 889, 0
[CLEANUP], 890, 0
[CLEANUP], 891, 0
[CLEANUP], 892, 0
[CLEANUP], 893, 0
[CLEANUP], 894, 0
[CLEANUP], 895, 0
[CLEANUP], 896, 0
[CLEANUP], 897, 0
[CLEANUP], 898, 0
[CLEANUP], 899, 0
[CLEANUP], 900, 0
[CLEANUP], 901, 0
[CLEANUP], 902, 0
[CLEANUP], 903, 0
[CLEANUP], 904, 0
[CLEANUP], 905, 0
[CLEANUP], 906, 0
[CLEANUP], 907, 0
[CLEANUP], 908, 0
[CLEANUP], 909, 0
[CLEANUP], 910, 0
[CLEANUP], 911, 0
[CLEANUP], 912, 0
[CLEANUP], 913, 0
[CLEANUP], 914, 0
[CLEANUP], 915, 0
[CLEANUP], 916, 0
[CLEANUP], 917, 0
[CLEANUP], 918, 0
[CLEANUP], 919, 0
[CLEANUP], 920, 0
[CLEANUP], 921, 0
[CLEANUP], 922, 0
[CLEANUP], 923, 0
[CLEANUP], 924, 0
[CLEANUP], 925, 0
[CLEANUP], 926, 0
[CLEANUP], 927, 0
[CLEANUP], 928, 0
[CLEANUP], 929, 0
[CLEANUP], 930, 0
[CLEANUP], 931, 0
[CLEANUP], 932, 0
[CLEANUP], 933, 0
[CLEANUP], 934, 0
[CLEANUP], 935, 0
[CLEANUP], 936, 0
[CLEANUP], 937, 0
[CLEANUP], 938, 0
[CLEANUP], 939, 0
[CLEANUP], 940, 0
[CLEANUP], 941, 0
[CLEANUP], 942, 0
[CLEANUP], 943, 0
[CLEANUP], 944, 0
[CLEANUP], 945, 0
[CLEANUP], 946, 0
[CLEANUP], 947, 0
[CLEANUP], 948, 0
[CLEANUP], 949, 0
[CLEANUP], 950, 0
[CLEANUP], 951, 0
[CLEANUP], 952, 0
[CLEANUP], 953, 0
[CLEANUP], 954, 0
[CLEANUP], 955, 0
[CLEANUP], 956, 0
[CLEANUP], 957, 0
[CLEANUP], 958, 0
[CLEANUP], 959, 0
[CLEANUP], 960, 0
[CLEANUP], 961, 0
[CLEANUP], 962, 0
[CLEANUP], 963, 0
[CLEANUP], 964, 0
[CLEANUP], 965, 0
[CLEANUP], 966, 0
[CLEANUP], 967, 0
[CLEANUP], 968, 0
[CLEANUP], 969, 0
[CLEANUP], 970, 0
[CLEANUP], 971, 0
[CLEANUP], 972, 0
[CLEANUP], 973, 0
[CLEANUP], 974, 0
[CLEANUP], 975, 0
[CLEANUP], 976, 0
[CLEANUP], 977, 0
[CLEANUP], 978, 0
[CLEANUP], 979, 0
[CLEANUP], 980, 0
[CLEANUP], 981, 0
[CLEANUP], 982, 0
[CLEANUP], 983, 0
[CLEANUP], 984, 0
[CLEANUP], 985, 0
[CLEANUP], 986, 0
[CLEANUP], 987, 0
[CLEANUP], 988, 0
[CLEANUP], 989, 0
[CLEANUP], 990, 0
[CLEANUP], 991, 0
[CLEANUP], 992, 0
[CLEANUP], 993, 0
[CLEANUP], 994, 0
[CLEANUP], 995, 0
[CLEANUP], 996, 0
[CLEANUP], 997, 0
[CLEANUP], 998, 0
[CLEANUP], 999, 0
[CLEANUP], >1000, 0
[QUERYWITHAGGREGATE], Operations, 100000
[QUERYWITHAGGREGATE], AverageLatency(us), 603772.84517
[QUERYWITHAGGREGATE], MinLatency(us), 296310
[QUERYWITHAGGREGATE], MaxLatency(us), 1676070
[QUERYWITHAGGREGATE], 95thPercentileLatency(ms), 812
[QUERYWITHAGGREGATE], 99thPercentileLatency(ms), 953
[QUERYWITHAGGREGATE], Return=0, 100000
[QUERYWITHAGGREGATE], 0, 0
[QUERYWITHAGGREGATE], 1, 0
[QUERYWITHAGGREGATE], 2, 0
[QUERYWITHAGGREGATE], 3, 0
[QUERYWITHAGGREGATE], 4, 0
[QUERYWITHAGGREGATE], 5, 0
[QUERYWITHAGGREGATE], 6, 0
[QUERYWITHAGGREGATE], 7, 0
[QUERYWITHAGGREGATE], 8, 0
[QUERYWITHAGGREGATE], 9, 0
[QUERYWITHAGGREGATE], 10, 0
[QUERYWITHAGGREGATE], 11, 0
[QUERYWITHAGGREGATE], 12, 0
[QUERYWITHAGGREGATE], 13, 0
[QUERYWITHAGGREGATE], 14, 0
[QUERYWITHAGGREGATE], 15, 0
[QUERYWITHAGGREGATE], 16, 0
[QUERYWITHAGGREGATE], 17, 0
[QUERYWITHAGGREGATE], 18, 0
[QUERYWITHAGGREGATE], 19, 0
[QUERYWITHAGGREGATE], 20, 0
[QUERYWITHAGGREGATE], 21, 0
[QUERYWITHAGGREGATE], 22, 0
[QUERYWITHAGGREGATE], 23, 0
[QUERYWITHAGGREGATE], 24, 0
[QUERYWITHAGGREGATE], 25, 0
[QUERYWITHAGGREGATE], 26, 0
[QUERYWITHAGGREGATE], 27, 0
[QUERYWITHAGGREGATE], 28, 0
[QUERYWITHAGGREGATE], 29, 0
[QUERYWITHAGGREGATE], 30, 0
[QUERYWITHAGGREGATE], 31, 0
[QUERYWITHAGGREGATE], 32, 0
[QUERYWITHAGGREGATE], 33, 0
[QUERYWITHAGGREGATE], 34, 0
[QUERYWITHAGGREGATE], 35, 0
[QUERYWITHAGGREGATE], 36, 0
[QUERYWITHAGGREGATE], 37, 0
[QUERYWITHAGGREGATE], 38, 0
[QUERYWITHAGGREGATE], 39, 0
[QUERYWITHAGGREGATE], 40, 0
[QUERYWITHAGGREGATE], 41, 0
[QUERYWITHAGGREGATE], 42, 0
[QUERYWITHAGGREGATE], 43, 0
[QUERYWITHAGGREGATE], 44, 0
[QUERYWITHAGGREGATE], 45, 0
[QUERYWITHAGGREGATE], 46, 0
[QUERYWITHAGGREGATE], 47, 0
[QUERYWITHAGGREGATE], 48, 0
[QUERYWITHAGGREGATE], 49, 0
[QUERYWITHAGGREGATE], 50, 0
[QUERYWITHAGGREGATE], 51, 0
[QUERYWITHAGGREGATE], 52, 0
[QUERYWITHAGGREGATE], 53, 0
[QUERYWITHAGGREGATE], 54, 0
[QUERYWITHAGGREGATE], 55, 0
[QUERYWITHAGGREGATE], 56, 0
[QUERYWITHAGGREGATE], 57, 0
[QUERYWITHAGGREGATE], 58, 0
[QUERYWITHAGGREGATE], 59, 0
[QUERYWITHAGGREGATE], 60, 0
[QUERYWITHAGGREGATE], 61, 0
[QUERYWITHAGGREGATE], 62, 0
[QUERYWITHAGGREGATE], 63, 0
[QUERYWITHAGGREGATE], 64, 0
[QUERYWITHAGGREGATE], 65, 0
[QUERYWITHAGGREGATE], 66, 0
[QUERYWITHAGGREGATE], 67, 0
[QUERYWITHAGGREGATE], 68, 0
[QUERYWITHAGGREGATE], 69, 0
[QUERYWITHAGGREGATE], 70, 0
[QUERYWITHAGGREGATE], 71, 0
[QUERYWITHAGGREGATE], 72, 0
[QUERYWITHAGGREGATE], 73, 0
[QUERYWITHAGGREGATE], 74, 0
[QUERYWITHAGGREGATE], 75, 0
[QUERYWITHAGGREGATE], 76, 0
[QUERYWITHAGGREGATE], 77, 0
[QUERYWITHAGGREGATE], 78, 0
[QUERYWITHAGGREGATE], 79, 0
[QUERYWITHAGGREGATE], 80, 0
[QUERYWITHAGGREGATE], 81, 0
[QUERYWITHAGGREGATE], 82, 0
[QUERYWITHAGGREGATE], 83, 0
[QUERYWITHAGGREGATE], 84, 0
[QUERYWITHAGGREGATE], 85, 0
[QUERYWITHAGGREGATE], 86, 0
[QUERYWITHAGGREGATE], 87, 0
[QUERYWITHAGGREGATE], 88, 0
[QUERYWITHAGGREGATE], 89, 0
[QUERYWITHAGGREGATE], 90, 0
[QUERYWITHAGGREGATE], 91, 0
[QUERYWITHAGGREGATE], 92, 0
[QUERYWITHAGGREGATE], 93, 0
[QUERYWITHAGGREGATE], 94, 0
[QUERYWITHAGGREGATE], 95, 0
[QUERYWITHAGGREGATE], 96, 0
[QUERYWITHAGGREGATE], 97, 0
[QUERYWITHAGGREGATE], 98, 0
[QUERYWITHAGGREGATE], 99, 0
[QUERYWITHAGGREGATE], 100, 0
[QUERYWITHAGGREGATE], 101, 0
[QUERYWITHAGGREGATE], 102, 0
[QUERYWITHAGGREGATE], 103, 0
[QUERYWITHAGGREGATE], 104, 0
[QUERYWITHAGGREGATE], 105, 0
[QUERYWITHAGGREGATE], 106, 0
[QUERYWITHAGGREGATE], 107, 0
[QUERYWITHAGGREGATE], 108, 0
[QUERYWITHAGGREGATE], 109, 0
[QUERYWITHAGGREGATE], 110, 0
[QUERYWITHAGGREGATE], 111, 0
[QUERYWITHAGGREGATE], 112, 0
[QUERYWITHAGGREGATE], 113, 0
[QUERYWITHAGGREGATE], 114, 0
[QUERYWITHAGGREGATE], 115, 0
[QUERYWITHAGGREGATE], 116, 0
[QUERYWITHAGGREGATE], 117, 0
[QUERYWITHAGGREGATE], 118, 0
[QUERYWITHAGGREGATE], 119, 0
[QUERYWITHAGGREGATE], 120, 0
[QUERYWITHAGGREGATE], 121, 0
[QUERYWITHAGGREGATE], 122, 0
[QUERYWITHAGGREGATE], 123, 0
[QUERYWITHAGGREGATE], 124, 0
[QUERYWITHAGGREGATE], 125, 0
[QUERYWITHAGGREGATE], 126, 0
[QUERYWITHAGGREGATE], 127, 0
[QUERYWITHAGGREGATE], 128, 0
[QUERYWITHAGGREGATE], 129, 0
[QUERYWITHAGGREGATE], 130, 0
[QUERYWITHAGGREGATE], 131, 0
[QUERYWITHAGGREGATE], 132, 0
[QUERYWITHAGGREGATE], 133, 0
[QUERYWITHAGGREGATE], 134, 0
[QUERYWITHAGGREGATE], 135, 0
[QUERYWITHAGGREGATE], 136, 0
[QUERYWITHAGGREGATE], 137, 0
[QUERYWITHAGGREGATE], 138, 0
[QUERYWITHAGGREGATE], 139, 0
[QUERYWITHAGGREGATE], 140, 0
[QUERYWITHAGGREGATE], 141, 0
[QUERYWITHAGGREGATE], 142, 0
[QUERYWITHAGGREGATE], 143, 0
[QUERYWITHAGGREGATE], 144, 0
[QUERYWITHAGGREGATE], 145, 0
[QUERYWITHAGGREGATE], 146, 0
[QUERYWITHAGGREGATE], 147, 0
[QUERYWITHAGGREGATE], 148, 0
[QUERYWITHAGGREGATE], 149, 0
[QUERYWITHAGGREGATE], 150, 0
[QUERYWITHAGGREGATE], 151, 0
[QUERYWITHAGGREGATE], 152, 0
[QUERYWITHAGGREGATE], 153, 0
[QUERYWITHAGGREGATE], 154, 0
[QUERYWITHAGGREGATE], 155, 0
[QUERYWITHAGGREGATE], 156, 0
[QUERYWITHAGGREGATE], 157, 0
[QUERYWITHAGGREGATE], 158, 0
[QUERYWITHAGGREGATE], 159, 0
[QUERYWITHAGGREGATE], 160, 0
[QUERYWITHAGGREGATE], 161, 0
[QUERYWITHAGGREGATE], 162, 0
[QUERYWITHAGGREGATE], 163, 0
[QUERYWITHAGGREGATE], 164, 0
[QUERYWITHAGGREGATE], 165, 0
[QUERYWITHAGGREGATE], 166, 0
[QUERYWITHAGGREGATE], 167, 0
[QUERYWITHAGGREGATE], 168, 0
[QUERYWITHAGGREGATE], 169, 0
[QUERYWITHAGGREGATE], 170, 0
[QUERYWITHAGGREGATE], 171, 0
[QUERYWITHAGGREGATE], 172, 0
[QUERYWITHAGGREGATE], 173, 0
[QUERYWITHAGGREGATE], 174, 0
[QUERYWITHAGGREGATE], 175, 0
[QUERYWITHAGGREGATE], 176, 0
[QUERYWITHAGGREGATE], 177, 0
[QUERYWITHAGGREGATE], 178, 0
[QUERYWITHAGGREGATE], 179, 0
[QUERYWITHAGGREGATE], 180, 0
[QUERYWITHAGGREGATE], 181, 0
[QUERYWITHAGGREGATE], 182, 0
[QUERYWITHAGGREGATE], 183, 0
[QUERYWITHAGGREGATE], 184, 0
[QUERYWITHAGGREGATE], 185, 0
[QUERYWITHAGGREGATE], 186, 0
[QUERYWITHAGGREGATE], 187, 0
[QUERYWITHAGGREGATE], 188, 0
[QUERYWITHAGGREGATE], 189, 0
[QUERYWITHAGGREGATE], 190, 0
[QUERYWITHAGGREGATE], 191, 0
[QUERYWITHAGGREGATE], 192, 0
[QUERYWITHAGGREGATE], 193, 0
[QUERYWITHAGGREGATE], 194, 0
[QUERYWITHAGGREGATE], 195, 0
[QUERYWITHAGGREGATE], 196, 0
[QUERYWITHAGGREGATE], 197, 0
[QUERYWITHAGGREGATE], 198, 0
[QUERYWITHAGGREGATE], 199, 0
[QUERYWITHAGGREGATE], 200, 0
[QUERYWITHAGGREGATE], 201, 0
[QUERYWITHAGGREGATE], 202, 0
[QUERYWITHAGGREGATE], 203, 0
[QUERYWITHAGGREGATE], 204, 0
[QUERYWITHAGGREGATE], 205, 0
[QUERYWITHAGGREGATE], 206, 0
[QUERYWITHAGGREGATE], 207, 0
[QUERYWITHAGGREGATE], 208, 0
[QUERYWITHAGGREGATE], 209, 0
[QUERYWITHAGGREGATE], 210, 0
[QUERYWITHAGGREGATE], 211, 0
[QUERYWITHAGGREGATE], 212, 0
[QUERYWITHAGGREGATE], 213, 0
[QUERYWITHAGGREGATE], 214, 0
[QUERYWITHAGGREGATE], 215, 0
[QUERYWITHAGGREGATE], 216, 0
[QUERYWITHAGGREGATE], 217, 0
[QUERYWITHAGGREGATE], 218, 0
[QUERYWITHAGGREGATE], 219, 0
[QUERYWITHAGGREGATE], 220, 0
[QUERYWITHAGGREGATE], 221, 0
[QUERYWITHAGGREGATE], 222, 0
[QUERYWITHAGGREGATE], 223, 0
[QUERYWITHAGGREGATE], 224, 0
[QUERYWITHAGGREGATE], 225, 0
[QUERYWITHAGGREGATE], 226, 0
[QUERYWITHAGGREGATE], 227, 0
[QUERYWITHAGGREGATE], 228, 0
[QUERYWITHAGGREGATE], 229, 0
[QUERYWITHAGGREGATE], 230, 0
[QUERYWITHAGGREGATE], 231, 0
[QUERYWITHAGGREGATE], 232, 0
[QUERYWITHAGGREGATE], 233, 0
[QUERYWITHAGGREGATE], 234, 0
[QUERYWITHAGGREGATE], 235, 0
[QUERYWITHAGGREGATE], 236, 0
[QUERYWITHAGGREGATE], 237, 0
[QUERYWITHAGGREGATE], 238, 0
[QUERYWITHAGGREGATE], 239, 0
[QUERYWITHAGGREGATE], 240, 0
[QUERYWITHAGGREGATE], 241, 0
[QUERYWITHAGGREGATE], 242, 0
[QUERYWITHAGGREGATE], 243, 0
[QUERYWITHAGGREGATE], 244, 0
[QUERYWITHAGGREGATE], 245, 0
[QUERYWITHAGGREGATE], 246, 0
[QUERYWITHAGGREGATE], 247, 0
[QUERYWITHAGGREGATE], 248, 0
[QUERYWITHAGGREGATE], 249, 0
[QUERYWITHAGGREGATE], 250, 0
[QUERYWITHAGGREGATE], 251, 0
[QUERYWITHAGGREGATE], 252, 0
[QUERYWITHAGGREGATE], 253, 0
[QUERYWITHAGGREGATE], 254, 0
[QUERYWITHAGGREGATE], 255, 0
[QUERYWITHAGGREGATE], 256, 0
[QUERYWITHAGGREGATE], 257, 0
[QUERYWITHAGGREGATE], 258, 0
[QUERYWITHAGGREGATE], 259, 0
[QUERYWITHAGGREGATE], 260, 0
[QUERYWITHAGGREGATE], 261, 0
[QUERYWITHAGGREGATE], 262, 0
[QUERYWITHAGGREGATE], 263, 0
[QUERYWITHAGGREGATE], 264, 0
[QUERYWITHAGGREGATE], 265, 0
[QUERYWITHAGGREGATE], 266, 0
[QUERYWITHAGGREGATE], 267, 0
[QUERYWITHAGGREGATE], 268, 0
[QUERYWITHAGGREGATE], 269, 0
[QUERYWITHAGGREGATE], 270, 0
[QUERYWITHAGGREGATE], 271, 0
[QUERYWITHAGGREGATE], 272, 0
[QUERYWITHAGGREGATE], 273, 0
[QUERYWITHAGGREGATE], 274, 0
[QUERYWITHAGGREGATE], 275, 0
[QUERYWITHAGGREGATE], 276, 0
[QUERYWITHAGGREGATE], 277, 0
[QUERYWITHAGGREGATE], 278, 0
[QUERYWITHAGGREGATE], 279, 0
[QUERYWITHAGGREGATE], 280, 0
[QUERYWITHAGGREGATE], 281, 0
[QUERYWITHAGGREGATE], 282, 0
[QUERYWITHAGGREGATE], 283, 0
[QUERYWITHAGGREGATE], 284, 0
[QUERYWITHAGGREGATE], 285, 0
[QUERYWITHAGGREGATE], 286, 0
[QUERYWITHAGGREGATE], 287, 0
[QUERYWITHAGGREGATE], 288, 0
[QUERYWITHAGGREGATE], 289, 0
[QUERYWITHAGGREGATE], 290, 0
[QUERYWITHAGGREGATE], 291, 0
[QUERYWITHAGGREGATE], 292, 0
[QUERYWITHAGGREGATE], 293, 0
[QUERYWITHAGGREGATE], 294, 0
[QUERYWITHAGGREGATE], 295, 0
[QUERYWITHAGGREGATE], 296, 1
[QUERYWITHAGGREGATE], 297, 0
[QUERYWITHAGGREGATE], 298, 0
[QUERYWITHAGGREGATE], 299, 0
[QUERYWITHAGGREGATE], 300, 0
[QUERYWITHAGGREGATE], 301, 0
[QUERYWITHAGGREGATE], 302, 0
[QUERYWITHAGGREGATE], 303, 0
[QUERYWITHAGGREGATE], 304, 0
[QUERYWITHAGGREGATE], 305, 0
[QUERYWITHAGGREGATE], 306, 0
[QUERYWITHAGGREGATE], 307, 0
[QUERYWITHAGGREGATE], 308, 3
[QUERYWITHAGGREGATE], 309, 67
[QUERYWITHAGGREGATE], 310, 84
[QUERYWITHAGGREGATE], 311, 19
[QUERYWITHAGGREGATE], 312, 13
[QUERYWITHAGGREGATE], 313, 4
[QUERYWITHAGGREGATE], 314, 5
[QUERYWITHAGGREGATE], 315, 2
[QUERYWITHAGGREGATE], 316, 8
[QUERYWITHAGGREGATE], 317, 20
[QUERYWITHAGGREGATE], 318, 18
[QUERYWITHAGGREGATE], 319, 16
[QUERYWITHAGGREGATE], 320, 22
[QUERYWITHAGGREGATE], 321, 29
[QUERYWITHAGGREGATE], 322, 41
[QUERYWITHAGGREGATE], 323, 33
[QUERYWITHAGGREGATE], 324, 29
[QUERYWITHAGGREGATE], 325, 14
[QUERYWITHAGGREGATE], 326, 31
[QUERYWITHAGGREGATE], 327, 14
[QUERYWITHAGGREGATE], 328, 15
[QUERYWITHAGGREGATE], 329, 13
[QUERYWITHAGGREGATE], 330, 10
[QUERYWITHAGGREGATE], 331, 8
[QUERYWITHAGGREGATE], 332, 1
[QUERYWITHAGGREGATE], 333, 2
[QUERYWITHAGGREGATE], 334, 11
[QUERYWITHAGGREGATE], 335, 12
[QUERYWITHAGGREGATE], 336, 4
[QUERYWITHAGGREGATE], 337, 7
[QUERYWITHAGGREGATE], 338, 16
[QUERYWITHAGGREGATE], 339, 10
[QUERYWITHAGGREGATE], 340, 3
[QUERYWITHAGGREGATE], 341, 6
[QUERYWITHAGGREGATE], 342, 7
[QUERYWITHAGGREGATE], 343, 7
[QUERYWITHAGGREGATE], 344, 13
[QUERYWITHAGGREGATE], 345, 8
[QUERYWITHAGGREGATE], 346, 6
[QUERYWITHAGGREGATE], 347, 14
[QUERYWITHAGGREGATE], 348, 7
[QUERYWITHAGGREGATE], 349, 9
[QUERYWITHAGGREGATE], 350, 15
[QUERYWITHAGGREGATE], 351, 8
[QUERYWITHAGGREGATE], 352, 9
[QUERYWITHAGGREGATE], 353, 18
[QUERYWITHAGGREGATE], 354, 16
[QUERYWITHAGGREGATE], 355, 13
[QUERYWITHAGGREGATE], 356, 7
[QUERYWITHAGGREGATE], 357, 11
[QUERYWITHAGGREGATE], 358, 27
[QUERYWITHAGGREGATE], 359, 39
[QUERYWITHAGGREGATE], 360, 43
[QUERYWITHAGGREGATE], 361, 18
[QUERYWITHAGGREGATE], 362, 15
[QUERYWITHAGGREGATE], 363, 12
[QUERYWITHAGGREGATE], 364, 13
[QUERYWITHAGGREGATE], 365, 10
[QUERYWITHAGGREGATE], 366, 11
[QUERYWITHAGGREGATE], 367, 12
[QUERYWITHAGGREGATE], 368, 15
[QUERYWITHAGGREGATE], 369, 9
[QUERYWITHAGGREGATE], 370, 9
[QUERYWITHAGGREGATE], 371, 16
[QUERYWITHAGGREGATE], 372, 6
[QUERYWITHAGGREGATE], 373, 15
[QUERYWITHAGGREGATE], 374, 30
[QUERYWITHAGGREGATE], 375, 16
[QUERYWITHAGGREGATE], 376, 32
[QUERYWITHAGGREGATE], 377, 25
[QUERYWITHAGGREGATE], 378, 28
[QUERYWITHAGGREGATE], 379, 50
[QUERYWITHAGGREGATE], 380, 24
[QUERYWITHAGGREGATE], 381, 33
[QUERYWITHAGGREGATE], 382, 32
[QUERYWITHAGGREGATE], 383, 34
[QUERYWITHAGGREGATE], 384, 20
[QUERYWITHAGGREGATE], 385, 28
[QUERYWITHAGGREGATE], 386, 16
[QUERYWITHAGGREGATE], 387, 11
[QUERYWITHAGGREGATE], 388, 13
[QUERYWITHAGGREGATE], 389, 16
[QUERYWITHAGGREGATE], 390, 17
[QUERYWITHAGGREGATE], 391, 18
[QUERYWITHAGGREGATE], 392, 22
[QUERYWITHAGGREGATE], 393, 23
[QUERYWITHAGGREGATE], 394, 25
[QUERYWITHAGGREGATE], 395, 28
[QUERYWITHAGGREGATE], 396, 24
[QUERYWITHAGGREGATE], 397, 26
[QUERYWITHAGGREGATE], 398, 21
[QUERYWITHAGGREGATE], 399, 20
[QUERYWITHAGGREGATE], 400, 24
[QUERYWITHAGGREGATE], 401, 18
[QUERYWITHAGGREGATE], 402, 24
[QUERYWITHAGGREGATE], 403, 20
[QUERYWITHAGGREGATE], 404, 15
[QUERYWITHAGGREGATE], 405, 20
[QUERYWITHAGGREGATE], 406, 14
[QUERYWITHAGGREGATE], 407, 22
[QUERYWITHAGGREGATE], 408, 20
[QUERYWITHAGGREGATE], 409, 23
[QUERYWITHAGGREGATE], 410, 25
[QUERYWITHAGGREGATE], 411, 26
[QUERYWITHAGGREGATE], 412, 24
[QUERYWITHAGGREGATE], 413, 24
[QUERYWITHAGGREGATE], 414, 31
[QUERYWITHAGGREGATE], 415, 45
[QUERYWITHAGGREGATE], 416, 23
[QUERYWITHAGGREGATE], 417, 42
[QUERYWITHAGGREGATE], 418, 30
[QUERYWITHAGGREGATE], 419, 31
[QUERYWITHAGGREGATE], 420, 44
[QUERYWITHAGGREGATE], 421, 41
[QUERYWITHAGGREGATE], 422, 35
[QUERYWITHAGGREGATE], 423, 32
[QUERYWITHAGGREGATE], 424, 39
[QUERYWITHAGGREGATE], 425, 29
[QUERYWITHAGGREGATE], 426, 42
[QUERYWITHAGGREGATE], 427, 39
[QUERYWITHAGGREGATE], 428, 31
[QUERYWITHAGGREGATE], 429, 51
[QUERYWITHAGGREGATE], 430, 45
[QUERYWITHAGGREGATE], 431, 53
[QUERYWITHAGGREGATE], 432, 52
[QUERYWITHAGGREGATE], 433, 54
[QUERYWITHAGGREGATE], 434, 32
[QUERYWITHAGGREGATE], 435, 74
[QUERYWITHAGGREGATE], 436, 34
[QUERYWITHAGGREGATE], 437, 56
[QUERYWITHAGGREGATE], 438, 47
[QUERYWITHAGGREGATE], 439, 54
[QUERYWITHAGGREGATE], 440, 33
[QUERYWITHAGGREGATE], 441, 49
[QUERYWITHAGGREGATE], 442, 37
[QUERYWITHAGGREGATE], 443, 45
[QUERYWITHAGGREGATE], 444, 51
[QUERYWITHAGGREGATE], 445, 37
[QUERYWITHAGGREGATE], 446, 33
[QUERYWITHAGGREGATE], 447, 40
[QUERYWITHAGGREGATE], 448, 43
[QUERYWITHAGGREGATE], 449, 38
[QUERYWITHAGGREGATE], 450, 41
[QUERYWITHAGGREGATE], 451, 37
[QUERYWITHAGGREGATE], 452, 58
[QUERYWITHAGGREGATE], 453, 45
[QUERYWITHAGGREGATE], 454, 57
[QUERYWITHAGGREGATE], 455, 52
[QUERYWITHAGGREGATE], 456, 55
[QUERYWITHAGGREGATE], 457, 65
[QUERYWITHAGGREGATE], 458, 53
[QUERYWITHAGGREGATE], 459, 58
[QUERYWITHAGGREGATE], 460, 58
[QUERYWITHAGGREGATE], 461, 65
[QUERYWITHAGGREGATE], 462, 64
[QUERYWITHAGGREGATE], 463, 80
[QUERYWITHAGGREGATE], 464, 81
[QUERYWITHAGGREGATE], 465, 80
[QUERYWITHAGGREGATE], 466, 78
[QUERYWITHAGGREGATE], 467, 84
[QUERYWITHAGGREGATE], 468, 98
[QUERYWITHAGGREGATE], 469, 70
[QUERYWITHAGGREGATE], 470, 105
[QUERYWITHAGGREGATE], 471, 111
[QUERYWITHAGGREGATE], 472, 98
[QUERYWITHAGGREGATE], 473, 126
[QUERYWITHAGGREGATE], 474, 129
[QUERYWITHAGGREGATE], 475, 111
[QUERYWITHAGGREGATE], 476, 141
[QUERYWITHAGGREGATE], 477, 147
[QUERYWITHAGGREGATE], 478, 140
[QUERYWITHAGGREGATE], 479, 144
[QUERYWITHAGGREGATE], 480, 173
[QUERYWITHAGGREGATE], 481, 168
[QUERYWITHAGGREGATE], 482, 183
[QUERYWITHAGGREGATE], 483, 196
[QUERYWITHAGGREGATE], 484, 196
[QUERYWITHAGGREGATE], 485, 190
[QUERYWITHAGGREGATE], 486, 201
[QUERYWITHAGGREGATE], 487, 227
[QUERYWITHAGGREGATE], 488, 216
[QUERYWITHAGGREGATE], 489, 230
[QUERYWITHAGGREGATE], 490, 211
[QUERYWITHAGGREGATE], 491, 235
[QUERYWITHAGGREGATE], 492, 244
[QUERYWITHAGGREGATE], 493, 234
[QUERYWITHAGGREGATE], 494, 301
[QUERYWITHAGGREGATE], 495, 270
[QUERYWITHAGGREGATE], 496, 286
[QUERYWITHAGGREGATE], 497, 301
[QUERYWITHAGGREGATE], 498, 298
[QUERYWITHAGGREGATE], 499, 314
[QUERYWITHAGGREGATE], 500, 321
[QUERYWITHAGGREGATE], 501, 337
[QUERYWITHAGGREGATE], 502, 381
[QUERYWITHAGGREGATE], 503, 332
[QUERYWITHAGGREGATE], 504, 361
[QUERYWITHAGGREGATE], 505, 372
[QUERYWITHAGGREGATE], 506, 420
[QUERYWITHAGGREGATE], 507, 381
[QUERYWITHAGGREGATE], 508, 391
[QUERYWITHAGGREGATE], 509, 390
[QUERYWITHAGGREGATE], 510, 408
[QUERYWITHAGGREGATE], 511, 404
[QUERYWITHAGGREGATE], 512, 395
[QUERYWITHAGGREGATE], 513, 430
[QUERYWITHAGGREGATE], 514, 424
[QUERYWITHAGGREGATE], 515, 421
[QUERYWITHAGGREGATE], 516, 450
[QUERYWITHAGGREGATE], 517, 407
[QUERYWITHAGGREGATE], 518, 453
[QUERYWITHAGGREGATE], 519, 434
[QUERYWITHAGGREGATE], 520, 405
[QUERYWITHAGGREGATE], 521, 440
[QUERYWITHAGGREGATE], 522, 470
[QUERYWITHAGGREGATE], 523, 438
[QUERYWITHAGGREGATE], 524, 471
[QUERYWITHAGGREGATE], 525, 484
[QUERYWITHAGGREGATE], 526, 467
[QUERYWITHAGGREGATE], 527, 482
[QUERYWITHAGGREGATE], 528, 511
[QUERYWITHAGGREGATE], 529, 481
[QUERYWITHAGGREGATE], 530, 504
[QUERYWITHAGGREGATE], 531, 499
[QUERYWITHAGGREGATE], 532, 525
[QUERYWITHAGGREGATE], 533, 548
[QUERYWITHAGGREGATE], 534, 522
[QUERYWITHAGGREGATE], 535, 472
[QUERYWITHAGGREGATE], 536, 480
[QUERYWITHAGGREGATE], 537, 472
[QUERYWITHAGGREGATE], 538, 494
[QUERYWITHAGGREGATE], 539, 526
[QUERYWITHAGGREGATE], 540, 520
[QUERYWITHAGGREGATE], 541, 506
[QUERYWITHAGGREGATE], 542, 515
[QUERYWITHAGGREGATE], 543, 536
[QUERYWITHAGGREGATE], 544, 504
[QUERYWITHAGGREGATE], 545, 483
[QUERYWITHAGGREGATE], 546, 579
[QUERYWITHAGGREGATE], 547, 536
[QUERYWITHAGGREGATE], 548, 524
[QUERYWITHAGGREGATE], 549, 589
[QUERYWITHAGGREGATE], 550, 557
[QUERYWITHAGGREGATE], 551, 544
[QUERYWITHAGGREGATE], 552, 531
[QUERYWITHAGGREGATE], 553, 526
[QUERYWITHAGGREGATE], 554, 500
[QUERYWITHAGGREGATE], 555, 564
[QUERYWITHAGGREGATE], 556, 584
[QUERYWITHAGGREGATE], 557, 575
[QUERYWITHAGGREGATE], 558, 499
[QUERYWITHAGGREGATE], 559, 525
[QUERYWITHAGGREGATE], 560, 534
[QUERYWITHAGGREGATE], 561, 547
[QUERYWITHAGGREGATE], 562, 547
[QUERYWITHAGGREGATE], 563, 495
[QUERYWITHAGGREGATE], 564, 557
[QUERYWITHAGGREGATE], 565, 526
[QUERYWITHAGGREGATE], 566, 524
[QUERYWITHAGGREGATE], 567, 532
[QUERYWITHAGGREGATE], 568, 512
[QUERYWITHAGGREGATE], 569, 532
[QUERYWITHAGGREGATE], 570, 519
[QUERYWITHAGGREGATE], 571, 528
[QUERYWITHAGGREGATE], 572, 526
[QUERYWITHAGGREGATE], 573, 522
[QUERYWITHAGGREGATE], 574, 513
[QUERYWITHAGGREGATE], 575, 482
[QUERYWITHAGGREGATE], 576, 511
[QUERYWITHAGGREGATE], 577, 477
[QUERYWITHAGGREGATE], 578, 482
[QUERYWITHAGGREGATE], 579, 472
[QUERYWITHAGGREGATE], 580, 492
[QUERYWITHAGGREGATE], 581, 485
[QUERYWITHAGGREGATE], 582, 513
[QUERYWITHAGGREGATE], 583, 458
[QUERYWITHAGGREGATE], 584, 492
[QUERYWITHAGGREGATE], 585, 489
[QUERYWITHAGGREGATE], 586, 468
[QUERYWITHAGGREGATE], 587, 453
[QUERYWITHAGGREGATE], 588, 441
[QUERYWITHAGGREGATE], 589, 466
[QUERYWITHAGGREGATE], 590, 501
[QUERYWITHAGGREGATE], 591, 448
[QUERYWITHAGGREGATE], 592, 433
[QUERYWITHAGGREGATE], 593, 429
[QUERYWITHAGGREGATE], 594, 443
[QUERYWITHAGGREGATE], 595, 433
[QUERYWITHAGGREGATE], 596, 415
[QUERYWITHAGGREGATE], 597, 409
[QUERYWITHAGGREGATE], 598, 404
[QUERYWITHAGGREGATE], 599, 410
[QUERYWITHAGGREGATE], 600, 424
[QUERYWITHAGGREGATE], 601, 385
[QUERYWITHAGGREGATE], 602, 398
[QUERYWITHAGGREGATE], 603, 378
[QUERYWITHAGGREGATE], 604, 381
[QUERYWITHAGGREGATE], 605, 368
[QUERYWITHAGGREGATE], 606, 376
[QUERYWITHAGGREGATE], 607, 380
[QUERYWITHAGGREGATE], 608, 363
[QUERYWITHAGGREGATE], 609, 330
[QUERYWITHAGGREGATE], 610, 370
[QUERYWITHAGGREGATE], 611, 334
[QUERYWITHAGGREGATE], 612, 310
[QUERYWITHAGGREGATE], 613, 317
[QUERYWITHAGGREGATE], 614, 358
[QUERYWITHAGGREGATE], 615, 336
[QUERYWITHAGGREGATE], 616, 338
[QUERYWITHAGGREGATE], 617, 324
[QUERYWITHAGGREGATE], 618, 342
[QUERYWITHAGGREGATE], 619, 346
[QUERYWITHAGGREGATE], 620, 338
[QUERYWITHAGGREGATE], 621, 329
[QUERYWITHAGGREGATE], 622, 327
[QUERYWITHAGGREGATE], 623, 293
[QUERYWITHAGGREGATE], 624, 349
[QUERYWITHAGGREGATE], 625, 301
[QUERYWITHAGGREGATE], 626, 284
[QUERYWITHAGGREGATE], 627, 307
[QUERYWITHAGGREGATE], 628, 261
[QUERYWITHAGGREGATE], 629, 277
[QUERYWITHAGGREGATE], 630, 306
[QUERYWITHAGGREGATE], 631, 283
[QUERYWITHAGGREGATE], 632, 274
[QUERYWITHAGGREGATE], 633, 294
[QUERYWITHAGGREGATE], 634, 259
[QUERYWITHAGGREGATE], 635, 262
[QUERYWITHAGGREGATE], 636, 247
[QUERYWITHAGGREGATE], 637, 253
[QUERYWITHAGGREGATE], 638, 260
[QUERYWITHAGGREGATE], 639, 246
[QUERYWITHAGGREGATE], 640, 261
[QUERYWITHAGGREGATE], 641, 232
[QUERYWITHAGGREGATE], 642, 240
[QUERYWITHAGGREGATE], 643, 221
[QUERYWITHAGGREGATE], 644, 242
[QUERYWITHAGGREGATE], 645, 238
[QUERYWITHAGGREGATE], 646, 220
[QUERYWITHAGGREGATE], 647, 238
[QUERYWITHAGGREGATE], 648, 226
[QUERYWITHAGGREGATE], 649, 263
[QUERYWITHAGGREGATE], 650, 260
[QUERYWITHAGGREGATE], 651, 221
[QUERYWITHAGGREGATE], 652, 226
[QUERYWITHAGGREGATE], 653, 228
[QUERYWITHAGGREGATE], 654, 189
[QUERYWITHAGGREGATE], 655, 220
[QUERYWITHAGGREGATE], 656, 192
[QUERYWITHAGGREGATE], 657, 235
[QUERYWITHAGGREGATE], 658, 217
[QUERYWITHAGGREGATE], 659, 227
[QUERYWITHAGGREGATE], 660, 205
[QUERYWITHAGGREGATE], 661, 178
[QUERYWITHAGGREGATE], 662, 220
[QUERYWITHAGGREGATE], 663, 173
[QUERYWITHAGGREGATE], 664, 195
[QUERYWITHAGGREGATE], 665, 191
[QUERYWITHAGGREGATE], 666, 192
[QUERYWITHAGGREGATE], 667, 189
[QUERYWITHAGGREGATE], 668, 181
[QUERYWITHAGGREGATE], 669, 191
[QUERYWITHAGGREGATE], 670, 218
[QUERYWITHAGGREGATE], 671, 191
[QUERYWITHAGGREGATE], 672, 201
[QUERYWITHAGGREGATE], 673, 221
[QUERYWITHAGGREGATE], 674, 200
[QUERYWITHAGGREGATE], 675, 183
[QUERYWITHAGGREGATE], 676, 178
[QUERYWITHAGGREGATE], 677, 205
[QUERYWITHAGGREGATE], 678, 209
[QUERYWITHAGGREGATE], 679, 194
[QUERYWITHAGGREGATE], 680, 192
[QUERYWITHAGGREGATE], 681, 207
[QUERYWITHAGGREGATE], 682, 179
[QUERYWITHAGGREGATE], 683, 194
[QUERYWITHAGGREGATE], 684, 178
[QUERYWITHAGGREGATE], 685, 190
[QUERYWITHAGGREGATE], 686, 188
[QUERYWITHAGGREGATE], 687, 178
[QUERYWITHAGGREGATE], 688, 193
[QUERYWITHAGGREGATE], 689, 193
[QUERYWITHAGGREGATE], 690, 206
[QUERYWITHAGGREGATE], 691, 180
[QUERYWITHAGGREGATE], 692, 185
[QUERYWITHAGGREGATE], 693, 190
[QUERYWITHAGGREGATE], 694, 145
[QUERYWITHAGGREGATE], 695, 154
[QUERYWITHAGGREGATE], 696, 193
[QUERYWITHAGGREGATE], 697, 159
[QUERYWITHAGGREGATE], 698, 166
[QUERYWITHAGGREGATE], 699, 165
[QUERYWITHAGGREGATE], 700, 166
[QUERYWITHAGGREGATE], 701, 155
[QUERYWITHAGGREGATE], 702, 167
[QUERYWITHAGGREGATE], 703, 177
[QUERYWITHAGGREGATE], 704, 158
[QUERYWITHAGGREGATE], 705, 154
[QUERYWITHAGGREGATE], 706, 169
[QUERYWITHAGGREGATE], 707, 149
[QUERYWITHAGGREGATE], 708, 181
[QUERYWITHAGGREGATE], 709, 146
[QUERYWITHAGGREGATE], 710, 137
[QUERYWITHAGGREGATE], 711, 152
[QUERYWITHAGGREGATE], 712, 158
[QUERYWITHAGGREGATE], 713, 153
[QUERYWITHAGGREGATE], 714, 152
[QUERYWITHAGGREGATE], 715, 169
[QUERYWITHAGGREGATE], 716, 143
[QUERYWITHAGGREGATE], 717, 142
[QUERYWITHAGGREGATE], 718, 134
[QUERYWITHAGGREGATE], 719, 144
[QUERYWITHAGGREGATE], 720, 141
[QUERYWITHAGGREGATE], 721, 129
[QUERYWITHAGGREGATE], 722, 133
[QUERYWITHAGGREGATE], 723, 139
[QUERYWITHAGGREGATE], 724, 152
[QUERYWITHAGGREGATE], 725, 130
[QUERYWITHAGGREGATE], 726, 134
[QUERYWITHAGGREGATE], 727, 127
[QUERYWITHAGGREGATE], 728, 141
[QUERYWITHAGGREGATE], 729, 156
[QUERYWITHAGGREGATE], 730, 112
[QUERYWITHAGGREGATE], 731, 131
[QUERYWITHAGGREGATE], 732, 146
[QUERYWITHAGGREGATE], 733, 115
[QUERYWITHAGGREGATE], 734, 122
[QUERYWITHAGGREGATE], 735, 130
[QUERYWITHAGGREGATE], 736, 112
[QUERYWITHAGGREGATE], 737, 123
[QUERYWITHAGGREGATE], 738, 118
[QUERYWITHAGGREGATE], 739, 118
[QUERYWITHAGGREGATE], 740, 111
[QUERYWITHAGGREGATE], 741, 117
[QUERYWITHAGGREGATE], 742, 122
[QUERYWITHAGGREGATE], 743, 97
[QUERYWITHAGGREGATE], 744, 86
[QUERYWITHAGGREGATE], 745, 100
[QUERYWITHAGGREGATE], 746, 121
[QUERYWITHAGGREGATE], 747, 94
[QUERYWITHAGGREGATE], 748, 109
[QUERYWITHAGGREGATE], 749, 118
[QUERYWITHAGGREGATE], 750, 106
[QUERYWITHAGGREGATE], 751, 99
[QUERYWITHAGGREGATE], 752, 98
[QUERYWITHAGGREGATE], 753, 111
[QUERYWITHAGGREGATE], 754, 103
[QUERYWITHAGGREGATE], 755, 97
[QUERYWITHAGGREGATE], 756, 109
[QUERYWITHAGGREGATE], 757, 106
[QUERYWITHAGGREGATE], 758, 98
[QUERYWITHAGGREGATE], 759, 97
[QUERYWITHAGGREGATE], 760, 72
[QUERYWITHAGGREGATE], 761, 103
[QUERYWITHAGGREGATE], 762, 102
[QUERYWITHAGGREGATE], 763, 90
[QUERYWITHAGGREGATE], 764, 84
[QUERYWITHAGGREGATE], 765, 77
[QUERYWITHAGGREGATE], 766, 86
[QUERYWITHAGGREGATE], 767, 90
[QUERYWITHAGGREGATE], 768, 84
[QUERYWITHAGGREGATE], 769, 77
[QUERYWITHAGGREGATE], 770, 83
[QUERYWITHAGGREGATE], 771, 88
[QUERYWITHAGGREGATE], 772, 78
[QUERYWITHAGGREGATE], 773, 76
[QUERYWITHAGGREGATE], 774, 68
[QUERYWITHAGGREGATE], 775, 93
[QUERYWITHAGGREGATE], 776, 80
[QUERYWITHAGGREGATE], 777, 76
[QUERYWITHAGGREGATE], 778, 67
[QUERYWITHAGGREGATE], 779, 66
[QUERYWITHAGGREGATE], 780, 73
[QUERYWITHAGGREGATE], 781, 89
[QUERYWITHAGGREGATE], 782, 91
[QUERYWITHAGGREGATE], 783, 60
[QUERYWITHAGGREGATE], 784, 72
[QUERYWITHAGGREGATE], 785, 66
[QUERYWITHAGGREGATE], 786, 70
[QUERYWITHAGGREGATE], 787, 71
[QUERYWITHAGGREGATE], 788, 84
[QUERYWITHAGGREGATE], 789, 57
[QUERYWITHAGGREGATE], 790, 68
[QUERYWITHAGGREGATE], 791, 63
[QUERYWITHAGGREGATE], 792, 69
[QUERYWITHAGGREGATE], 793, 57
[QUERYWITHAGGREGATE], 794, 79
[QUERYWITHAGGREGATE], 795, 77
[QUERYWITHAGGREGATE], 796, 52
[QUERYWITHAGGREGATE], 797, 69
[QUERYWITHAGGREGATE], 798, 64
[QUERYWITHAGGREGATE], 799, 67
[QUERYWITHAGGREGATE], 800, 63
[QUERYWITHAGGREGATE], 801, 56
[QUERYWITHAGGREGATE], 802, 54
[QUERYWITHAGGREGATE], 803, 47
[QUERYWITHAGGREGATE], 804, 59
[QUERYWITHAGGREGATE], 805, 52
[QUERYWITHAGGREGATE], 806, 59
[QUERYWITHAGGREGATE], 807, 46
[QUERYWITHAGGREGATE], 808, 52
[QUERYWITHAGGREGATE], 809, 63
[QUERYWITHAGGREGATE], 810, 72
[QUERYWITHAGGREGATE], 811, 66
[QUERYWITHAGGREGATE], 812, 41
[QUERYWITHAGGREGATE], 813, 57
[QUERYWITHAGGREGATE], 814, 42
[QUERYWITHAGGREGATE], 815, 49
[QUERYWITHAGGREGATE], 816, 39
[QUERYWITHAGGREGATE], 817, 54
[QUERYWITHAGGREGATE], 818, 58
[QUERYWITHAGGREGATE], 819, 67
[QUERYWITHAGGREGATE], 820, 28
[QUERYWITHAGGREGATE], 821, 61
[QUERYWITHAGGREGATE], 822, 48
[QUERYWITHAGGREGATE], 823, 51
[QUERYWITHAGGREGATE], 824, 49
[QUERYWITHAGGREGATE], 825, 55
[QUERYWITHAGGREGATE], 826, 37
[QUERYWITHAGGREGATE], 827, 39
[QUERYWITHAGGREGATE], 828, 53
[QUERYWITHAGGREGATE], 829, 39
[QUERYWITHAGGREGATE], 830, 50
[QUERYWITHAGGREGATE], 831, 65
[QUERYWITHAGGREGATE], 832, 57
[QUERYWITHAGGREGATE], 833, 44
[QUERYWITHAGGREGATE], 834, 42
[QUERYWITHAGGREGATE], 835, 40
[QUERYWITHAGGREGATE], 836, 51
[QUERYWITHAGGREGATE], 837, 42
[QUERYWITHAGGREGATE], 838, 36
[QUERYWITHAGGREGATE], 839, 39
[QUERYWITHAGGREGATE], 840, 43
[QUERYWITHAGGREGATE], 841, 31
[QUERYWITHAGGREGATE], 842, 47
[QUERYWITHAGGREGATE], 843, 39
[QUERYWITHAGGREGATE], 844, 42
[QUERYWITHAGGREGATE], 845, 43
[QUERYWITHAGGREGATE], 846, 38
[QUERYWITHAGGREGATE], 847, 43
[QUERYWITHAGGREGATE], 848, 33
[QUERYWITHAGGREGATE], 849, 35
[QUERYWITHAGGREGATE], 850, 36
[QUERYWITHAGGREGATE], 851, 33
[QUERYWITHAGGREGATE], 852, 37
[QUERYWITHAGGREGATE], 853, 33
[QUERYWITHAGGREGATE], 854, 27
[QUERYWITHAGGREGATE], 855, 41
[QUERYWITHAGGREGATE], 856, 40
[QUERYWITHAGGREGATE], 857, 35
[QUERYWITHAGGREGATE], 858, 37
[QUERYWITHAGGREGATE], 859, 30
[QUERYWITHAGGREGATE], 860, 46
[QUERYWITHAGGREGATE], 861, 27
[QUERYWITHAGGREGATE], 862, 36
[QUERYWITHAGGREGATE], 863, 42
[QUERYWITHAGGREGATE], 864, 24
[QUERYWITHAGGREGATE], 865, 36
[QUERYWITHAGGREGATE], 866, 37
[QUERYWITHAGGREGATE], 867, 26
[QUERYWITHAGGREGATE], 868, 25
[QUERYWITHAGGREGATE], 869, 29
[QUERYWITHAGGREGATE], 870, 27
[QUERYWITHAGGREGATE], 871, 27
[QUERYWITHAGGREGATE], 872, 24
[QUERYWITHAGGREGATE], 873, 22
[QUERYWITHAGGREGATE], 874, 39
[QUERYWITHAGGREGATE], 875, 28
[QUERYWITHAGGREGATE], 876, 23
[QUERYWITHAGGREGATE], 877, 22
[QUERYWITHAGGREGATE], 878, 41
[QUERYWITHAGGREGATE], 879, 27
[QUERYWITHAGGREGATE], 880, 23
[QUERYWITHAGGREGATE], 881, 28
[QUERYWITHAGGREGATE], 882, 30
[QUERYWITHAGGREGATE], 883, 33
[QUERYWITHAGGREGATE], 884, 38
[QUERYWITHAGGREGATE], 885, 22
[QUERYWITHAGGREGATE], 886, 23
[QUERYWITHAGGREGATE], 887, 29
[QUERYWITHAGGREGATE], 888, 30
[QUERYWITHAGGREGATE], 889, 29
[QUERYWITHAGGREGATE], 890, 20
[QUERYWITHAGGREGATE], 891, 31
[QUERYWITHAGGREGATE], 892, 20
[QUERYWITHAGGREGATE], 893, 20
[QUERYWITHAGGREGATE], 894, 14
[QUERYWITHAGGREGATE], 895, 14
[QUERYWITHAGGREGATE], 896, 21
[QUERYWITHAGGREGATE], 897, 26
[QUERYWITHAGGREGATE], 898, 23
[QUERYWITHAGGREGATE], 899, 25
[QUERYWITHAGGREGATE], 900, 16
[QUERYWITHAGGREGATE], 901, 22
[QUERYWITHAGGREGATE], 902, 20
[QUERYWITHAGGREGATE], 903, 20
[QUERYWITHAGGREGATE], 904, 17
[QUERYWITHAGGREGATE], 905, 24
[QUERYWITHAGGREGATE], 906, 14
[QUERYWITHAGGREGATE], 907, 16
[QUERYWITHAGGREGATE], 908, 19
[QUERYWITHAGGREGATE], 909, 20
[QUERYWITHAGGREGATE], 910, 16
[QUERYWITHAGGREGATE], 911, 17
[QUERYWITHAGGREGATE], 912, 24
[QUERYWITHAGGREGATE], 913, 15
[QUERYWITHAGGREGATE], 914, 16
[QUERYWITHAGGREGATE], 915, 22
[QUERYWITHAGGREGATE], 916, 18
[QUERYWITHAGGREGATE], 917, 19
[QUERYWITHAGGREGATE], 918, 17
[QUERYWITHAGGREGATE], 919, 15
[QUERYWITHAGGREGATE], 920, 15
[QUERYWITHAGGREGATE], 921, 16
[QUERYWITHAGGREGATE], 922, 16
[QUERYWITHAGGREGATE], 923, 17
[QUERYWITHAGGREGATE], 924, 15
[QUERYWITHAGGREGATE], 925, 24
[QUERYWITHAGGREGATE], 926, 10
[QUERYWITHAGGREGATE], 927, 19
[QUERYWITHAGGREGATE], 928, 11
[QUERYWITHAGGREGATE], 929, 17
[QUERYWITHAGGREGATE], 930, 18
[QUERYWITHAGGREGATE], 931, 17
[QUERYWITHAGGREGATE], 932, 23
[QUERYWITHAGGREGATE], 933, 17
[QUERYWITHAGGREGATE], 934, 13
[QUERYWITHAGGREGATE], 935, 15
[QUERYWITHAGGREGATE], 936, 18
[QUERYWITHAGGREGATE], 937, 14
[QUERYWITHAGGREGATE], 938, 12
[QUERYWITHAGGREGATE], 939, 15
[QUERYWITHAGGREGATE], 940, 13
[QUERYWITHAGGREGATE], 941, 9
[QUERYWITHAGGREGATE], 942, 6
[QUERYWITHAGGREGATE], 943, 12
[QUERYWITHAGGREGATE], 944, 17
[QUERYWITHAGGREGATE], 945, 9
[QUERYWITHAGGREGATE], 946, 10
[QUERYWITHAGGREGATE], 947, 8
[QUERYWITHAGGREGATE], 948, 14
[QUERYWITHAGGREGATE], 949, 18
[QUERYWITHAGGREGATE], 950, 10
[QUERYWITHAGGREGATE], 951, 10
[QUERYWITHAGGREGATE], 952, 10
[QUERYWITHAGGREGATE], 953, 16
[QUERYWITHAGGREGATE], 954, 12
[QUERYWITHAGGREGATE], 955, 12
[QUERYWITHAGGREGATE], 956, 8
[QUERYWITHAGGREGATE], 957, 12
[QUERYWITHAGGREGATE], 958, 14
[QUERYWITHAGGREGATE], 959, 13
[QUERYWITHAGGREGATE], 960, 7
[QUERYWITHAGGREGATE], 961, 9
[QUERYWITHAGGREGATE], 962, 5
[QUERYWITHAGGREGATE], 963, 14
[QUERYWITHAGGREGATE], 964, 14
[QUERYWITHAGGREGATE], 965, 11
[QUERYWITHAGGREGATE], 966, 6
[QUERYWITHAGGREGATE], 967, 12
[QUERYWITHAGGREGATE], 968, 7
[QUERYWITHAGGREGATE], 969, 14
[QUERYWITHAGGREGATE], 970, 4
[QUERYWITHAGGREGATE], 971, 10
[QUERYWITHAGGREGATE], 972, 8
[QUERYWITHAGGREGATE], 973, 16
[QUERYWITHAGGREGATE], 974, 3
[QUERYWITHAGGREGATE], 975, 12
[QUERYWITHAGGREGATE], 976, 11
[QUERYWITHAGGREGATE], 977, 9
[QUERYWITHAGGREGATE], 978, 9
[QUERYWITHAGGREGATE], 979, 5
[QUERYWITHAGGREGATE], 980, 7
[QUERYWITHAGGREGATE], 981, 11
[QUERYWITHAGGREGATE], 982, 9
[QUERYWITHAGGREGATE], 983, 8
[QUERYWITHAGGREGATE], 984, 10
[QUERYWITHAGGREGATE], 985, 9
[QUERYWITHAGGREGATE], 986, 5
[QUERYWITHAGGREGATE], 987, 7
[QUERYWITHAGGREGATE], 988, 6
[QUERYWITHAGGREGATE], 989, 9
[QUERYWITHAGGREGATE], 990, 6
[QUERYWITHAGGREGATE], 991, 6
[QUERYWITHAGGREGATE], 992, 8
[QUERYWITHAGGREGATE], 993, 2
[QUERYWITHAGGREGATE], 994, 9
[QUERYWITHAGGREGATE], 995, 7
[QUERYWITHAGGREGATE], 996, 8
[QUERYWITHAGGREGATE], 997, 8
[QUERYWITHAGGREGATE], 998, 6
[QUERYWITHAGGREGATE], 999, 8
[QUERYWITHAGGREGATE], >1000, 588
/home/gpadmin/shangz/ycsb/ycsb-0.1.4/core
/home/gpadmin/shangz/ycsb/ycsb-0.1.4/gemfirexd
java -cp /home/gpadmin/shangz/ycsb/ycsb-0.1.4/core/target/core-0.1.4.jar:/home/gpadmin/shangz/ycsb/ycsb-0.1.4/gemfirexd/target/gemfirexd-binding-0.1.4.jar:/home/gpadmin/shangz/ycsb/ycsb-0.1.4/gemfirexd/target/archive-tmp/gemfirexd-binding-0.1.4.jar:/home/gpadmin/shangz/ycsb/ycsb-0.1.4/gemfirexd/lib/gemfirexd-tools.jar:/home/gpadmin/shangz/ycsb/ycsb-0.1.4/gemfirexd/lib/gemfirexd.jar:/home/gpadmin/shangz/ycsb/ycsb-0.1.4/gemfirexd/lib/gemfirexd-client.jar:/home/gpadmin/shangz/ycsb/ycsb-0.1.4/gemfirexd/lib/._gemfirexd.jar:/home/gpadmin/shangz/ycsb/ycsb-0.1.4/gemfirexd/lib/._gemfirexd-tools.jar:/home/gpadmin/shangz/ycsb/ycsb-0.1.4/gemfirexd/lib/._slf4j-jdk14-1.7.5.jar:/home/gpadmin/shangz/ycsb/ycsb-0.1.4/gemfirexd/lib/._gemfirexd-client.jar:/home/gpadmin/shangz/ycsb/ycsb-0.1.4/gemfirexd/lib/slf4j-jdk14-1.7.5.jar com.yahoo.ycsb.Client -db com.yahoo.ycsb.db.GemFireXDClient -p db.driver=com.pivotal.gemfirexd.jdbc.EmbeddedDriver -p db.url=jdbc:gemfirexd:;locators=hdw8.gphd.local[10101];host-data=false;conserve-sockets=false -p query.hdfs=false -threads 32 -P /home/gpadmin/shangz/ycsb/ycsb-0.1.4/workloads/gfxd_hdfs_workload_qa -p operationcount=100000 -s -t
